PARAMO Tutorial • SCATE.shortcourse
…
data(fishtree)
td <- make.treedata(fishtree, dat)
td

## $phy 
## 
## Phylogenetic tree with 474 tips and 473 internal nodes.
## 
## Tip labels:
##   Synodontis_victoriae, Synodontis_acanthomias, Synodontis_zambezensis, Synodontis_njassae, Synodontis_sorex, Synodontis_clarias, ...
## 
## Rooted; includes branch lengths.
## 
## $dat 
## # A tibble: 474 × 18
##    vomer `accessory vomerine…` `ectopterygoid…` `mental barbel` `inner mental …`
##    <fct> <fct>                 <fct>            <fct>           <fct>           
##  1 NA    NA                    NA               1               1               
##  2 NA    NA                    NA               1               1               
##  3 NA    NA                    NA               1               1               
##  4 NA    NA                    NA               1               1               
##  5 NA    NA                    NA               1               1               
##  6 1     0                     NA               1               1               
##  7 NA    NA                    NA               1               1               
##  8 NA    NA                    NA               1               1               
##  9 NA    NA                    NA               1               1               
## 10 NA    NA                    NA               1               1               
## # … with 464 more rows, and 13 more variables: `outer mental barbel` <fct>,
## #   `anterior nasal barbel` <int>, `posterior nasal barbel` <fct>,
## #   urohyal <fct>, `urohyal lateral process` <fct>,
## #   `urohyal median process` <fct>, `pectoral fin spine` <int>,
## #   `anterior dentation of pectoral fin spine` <fct>,
## #   `posterior dentation of pectoral fin spine` <fct>, `pectoral fin` <int>,
## #   `pelvic fin` <fct>, `pelvic splint` <fct>, `pelvic fin ray` <fct>
…
